Kittens in paradise - A Hugo website
…
names(kitten_weight_gain)

## [1] "Date"             "Day of Fostering" "Rhyme_male"      
## [4] "Reason_male"      "Rebel_female"     "Scale"

tidy_kittens <- pivot_longer(kitten_weight_gain, cols = 3:5, names_to = "kitten_name", values_to = "weight_in_grams")

tidy_kittens %>% separate(col = 4, into = c("kitten_name", "sex"), sep = "_")

## # A tibble: 45 x 6
##    Date     `Day of Fostering` Scale kitten_name sex    weight_in_grams
##    <chr>                 <dbl> <dbl> <chr>       <chr>            <dbl>
##  1 5/5/2017                  1     1 Rhyme       male               590
##  2 5/5/2017                  1     1 Reason      male               680
##  3 5/5/2017                  1     1 Rebel       female             635
##  4 5/6/2017                  2     2 Rhyme       male               555
##  5 5/6/2017                  2     2 Reason      male               625
##  6 5/6/2017                  2     2 Rebel       female             550
##  7 5/7/2017                  3     2 Rhyme       male               560
##  8 5/7/2017                  3     2 Reason      male               680
##  9 5/7/2017                  3     2 Rebel       female             591
## 10 5/8/2017                  4     2 Rhyme       male               600
## # … with 35 more rows
…
